﻿49470e76-addc-42e2-8353-8019145f1e2c-->und\49470e76-addc-42e2-8353-8019145f1e2c
49470e76-addc-42e2-8353-8019145f1e2c.0-->und\49470e76-addc-42e2-8353-8019145f1e2c.0
8188a7cd-d778-453d-8c3e-afdc77c354ff-->und\8188a7cd-d778-453d-8c3e-afdc77c354ff
8188a7cd-d778-453d-8c3e-afdc77c354ff.0-->und\8188a7cd-d778-453d-8c3e-afdc77c354ff.0
90075f17-11ac-430f-ad40-6df4ebcd31ca-->und\90075f17-11ac-430f-ad40-6df4ebcd31ca
90075f17-11ac-430f-ad40-6df4ebcd31ca.0-->und\90075f17-11ac-430f-ad40-6df4ebcd31ca.0
cab0acd2-d376-41eb-bf0b-9c487cabf7a7-->und\cab0acd2-d376-41eb-bf0b-9c487cabf7a7
ce979a67-53d1-45f1-8703-0972ac380159.0\info-->und\ce979a67-53d1-45f1-8703-0972ac380159.0\info
ce979a67-53d1-45f1-8703-0972ac380159.0\text-->ObjectModule.bsl
copyinfo-->und\copyinfo
root-->und\root
version-->und\version
versions-->und\versions
