﻿Form\Форма\Форма.bsl-->d223eb0e-6c93-4d5d-929d-703d74ba330c.0 (14 595, 20 284)
Form\ФормаВыбораПлатежныхВедомостей\Форма.bsl-->84c0a156-2829-4907-9406-f4a7bd6f3872.0 (421, 440)
Макеты\МакетРеестрНаВыпускБанковскихКарт.mxl-->9c5f0f40-a95a-4d7b-82cb-48e0dbb37eb9.0
Макеты\МакетРеестрНаЗачислениеДенежныхСредств.mxl-->18554d2e-4156-4ff8-b688-265e9310946c.0
