﻿																											
	УВЕДОМЛЕНИЕ																										
																											
				"[ДатаЧисло]"			ДатаМесяц						ДатаГод								г.Хабаровск						
																											
				Уважаемый(ая)						Работник																	
				уведомляем Вас о начале ежегодного основного оплачиваемого отпуска за																							
				период работы с						ПериодРаботыС						по	ПериодРаботыПо						в количестве				
				Продолжительность				дней.																			
				С	ПериодОтпускаС								по	ПериодОтпускаПо							включительно.						
				На работу прибыть							ПервыйРабочийДень							.									
				ИсполнительДолжность														ИсполнительФИО									
																											
				Второй экземпляр на руки получил.																							
																											
																											
				(дата)									(подпись, расшифровка)														
																											
																											