﻿																
		Имя									Имя					
																
	Фамилия									Фамилия						
	Подразделение					В должности с: [ДатаВыдачи]				Подразделение					В должности с: [ДатаВыдачи]	
	Должность									Должность						
				НомерМагазина									НомерМагазина			
																
																
																
																
																
																





