﻿49470e76-addc-42e2-8353-8019145f1e2c-->und\49470e76-addc-42e2-8353-8019145f1e2c
49470e76-addc-42e2-8353-8019145f1e2c.0-->und\49470e76-addc-42e2-8353-8019145f1e2c.0
56783786-5898-4219-93a8-8b6d2d31d074-->und\56783786-5898-4219-93a8-8b6d2d31d074
56783786-5898-4219-93a8-8b6d2d31d074.0-->und\56783786-5898-4219-93a8-8b6d2d31d074.0
cab0acd2-d376-41eb-bf0b-9c487cabf7a7-->und\cab0acd2-d376-41eb-bf0b-9c487cabf7a7
ce979a67-53d1-45f1-8703-0972ac380159.0\info-->und\ce979a67-53d1-45f1-8703-0972ac380159.0\info
ce979a67-53d1-45f1-8703-0972ac380159.0\text-->ObjectModule.bsl
copyinfo-->und\copyinfo
root-->und\root
version-->und\version
versions-->und\versions
