﻿Form\ФормаПроверка\Форма.bsl-->49470e76-addc-42e2-8353-8019145f1e2c.0 (511, 583)
Макеты\ОбязательствоОНеразглашении.mxl-->86a3bc52-204d-4b21-b171-ac47e91313ee.0
Макеты\СоглашениеОНеразглашенииИнформации.mxl-->e4ae2457-fb3b-497c-84f8-c0060ca57e8a.0
Макеты\СоглашениеОНеразглашенииКоммерческойТайны.mxl-->a90b5393-ec8a-410a-ad7a-3ce7c0b1b993.0
