﻿24d7d3a6-a084-42ba-ba2c-b3832e4f02d0-->und\24d7d3a6-a084-42ba-ba2c-b3832e4f02d0
ad84c642-3e2f-45cf-8aa2-141a92f3c571-->und\ad84c642-3e2f-45cf-8aa2-141a92f3c571
ad84c642-3e2f-45cf-8aa2-141a92f3c571.0-->und\ad84c642-3e2f-45cf-8aa2-141a92f3c571.0
copyinfo-->und\copyinfo
root-->und\root
version-->und\version
versions-->und\versions
