﻿3bd2db1f-941d-4a04-9fc1-db9403c76b04-->und\3bd2db1f-941d-4a04-9fc1-db9403c76b04
3bd2db1f-941d-4a04-9fc1-db9403c76b04.0-->und\3bd2db1f-941d-4a04-9fc1-db9403c76b04.0
7a1fb4d7-5a46-414d-8949-9cfaf0859838-->und\7a1fb4d7-5a46-414d-8949-9cfaf0859838
copyinfo-->und\copyinfo
d74f1388-c0d0-4f2c-8769-8e0dcbd30dc5-->und\d74f1388-c0d0-4f2c-8769-8e0dcbd30dc5
d74f1388-c0d0-4f2c-8769-8e0dcbd30dc5.0-->und\d74f1388-c0d0-4f2c-8769-8e0dcbd30dc5.0
d90f9193-65fe-47fd-913d-d42c069817a0.0\info-->und\d90f9193-65fe-47fd-913d-d42c069817a0.0\info
d90f9193-65fe-47fd-913d-d42c069817a0.0\text-->ObjectModule.bsl
root-->und\root
version-->und\version
versions-->und\versions
